5186:
2.8
3.0
3.0
3.4
3.3
2.9
3.1
3.2
5187:
3.4
3.2
3.8
3.7
3.1
4.2
3.8
3.9
4.0
4.4
2.8
3.9
4.4
3.8
4.0
3.5
3.5
4.0
3.9
4.0
3.9
3.3
4.7
3.7
3.9
4.2
3.6
4.1
3.6
4.3
3.9
3.4
3.8
3.9
4.0
4.3
4.5
4.6
3.4
4.2
4.8
4.3
3.8
3.5
3.8
3.9
4.4
3.5
3.1
4.1
3.8
3.7
3.4
3.5
4.0
3.5
3.9
4.1
3.8
3.7
3.9
4.0
4.1
4.0
3.4
3.8
3.2
3.4
3.6
4.8
3.8
3.1
3.4
3.6
3.7
4.3
3.6
3.8
4.3
3.4
4.3
3.7
3.7
3.6
3.7
4.1
4.0
3.9
3.9
4.1
4.2
3.2
3.9
4.0
3.9
3.8
3.8
3.3
3.9
4.1
4.0
4.0
3.8
4.2
3.4
3.7
3.4
3.7
3.5
3.8
4.0
3.2
3.7
3.7
4.1
3.6
3.9
4.1
3.8
3.9
3.6
2.9
5188:
3.5
2.9
3.5
3.8
3.8
4.1
3.6
3.9
2.8
5189:
3.8
3.0
4.2
3.7
519:
4.1
3.5
3.9
3.7
4.0
3.9
3.5
3.5
3.9
5190:
3.5
4.1
3.3
3.4
3.5
3.4
4.2
4.4
3.2
4.2
3.8
4.4
4.2
3.8
4.0
3.1
4.2
4.3
4.4
3.6
3.5
3.6
3.7
4.5
4.1
4.4
4.4
3.5
4.4
4.0
4.2
3.3
3.9
3.9
3.6
4.2
3.5
4.9
3.5
2.9
3.6
3.1
RMSE: 0.97
